3章
…
[1] 17.581

問題3.3

icedata <- read_csv("R_EmpiricalAnalysis_csv/chap03/icecream.csv")

1

icedata %>% 
  dplyr::select(city,icecream) %>% 
  arrange(-icecream)

# A tibble: 49 × 2
   city     icecream
   <chr>       <dbl>
 1 富山市      10059
 2 金沢市       9855
 3 浜松市       9854
 4 鹿児島市     9776
 5 宇都宮市     9706
 6 福井市       9443
 7 川崎市       9399
 8 京都市       9344
 9 相模原市     9161
10 山形市       8842
# ℹ 39 more rows
…
